999
dxfrw 0.6.3
  0
SECTION
  2
HEADER
  9
$ACADVER
  1
AC1021
  9
$DWGCODEPAGE
  3
ANSI_1252
  9
$INSBASE
 10
0
 20
0
 30
0
  9
$EXTMIN
 10
-89.25000000000018
 20
-14.24999999999999
 30
0
  9
$EXTMAX
 10
89.25000000000018
 20
120
 30
0
  9
$LIMMIN
 10
0
 20
0
  9
$LIMMAX
 10
420
 20
297
  9
$ORTHOMODE
 70
    0
  9
$REGENMODE
 70
    1
  9
$FILLMODE
 70
    1
  9
$QTEXTMODE
 70
    0
  9
$MIRRTEXT
 70
    0
  9
$LTSCALE
 40
1
  9
$ATTMODE
 70
    0
  9
$TEXTSIZE
 40
2.5
  9
$TRACEWID
 40
15.68
  9
$TEXTSTYLE
  7
STANDARD
  9
$CLAYER
  8
HolderProfile
  9
$CELTYPE
  6
BYLAYER
  9
$CECOLOR
 62
  256
  9
$CELTSCALE
 40
1
  9
$DISPSILH
 70
    0
  9
$DIMSCALE
 40
1
  9
$DIMASZ
 40
2.5
  9
$DIMEXO
 40
0.625
  9
$DIMDLI
 40
3.75
  9
$DIMRND
 40
0
  9
$DIMDLE
 40
0
  9
$DIMEXE
 40
1.25
  9
$DIMTP
 40
0
  9
$DIMTM
 40
0
  9
$DIMTXT
 40
2.5
  9
$DIMCEN
 40
2.5
  9
$DIMTSZ
 40
0
  9
$DIMTOL
 70
    0
  9
$DIMLIM
 70
    0
  9
$DIMTIH
 70
    0
  9
$DIMTOH
 70
    0
  9
$DIMSE1
 70
    0
  9
$DIMSE2
 70
    0
  9
$DIMTAD
 70
    1
  9
$DIMZIN
 70
    8
  9
$DIMBLK
  1

  9
$DIMASO
 70
    1
  9
$DIMSHO
 70
    1
  9
$DIMPOST
  1

  9
$DIMAPOST
  1

  9
$DIMALT
 70
    0
  9
$DIMALTD
 70
    3
  9
$DIMALTF
 40
0.03937
  9
$DIMLFAC
 40
1
  9
$DIMTOFL
 70
    1
  9
$DIMTVP
 40
0
  9
$DIMTIX
 70
    0
  9
$DIMSOXD
 70
    0
  9
$DIMSAH
 70
    0
  9
$DIMBLK1
  1

  9
$DIMBLK2
  1

  9
$DIMSTYLE
  2
STANDARD
  9
$DIMCLRD
 70
    0
  9
$DIMCLRE
 70
    0
  9
$DIMCLRT
 70
    0
  9
$DIMTFAC
 40
1
  9
$DIMGAP
 40
0.625
  9
$DIMJUST
 70
    0
  9
$DIMSD1
 70
    0
  9
$DIMSD2
 70
    0
  9
$DIMTOLJ
 70
    0
  9
$DIMTZIN
 70
    8
  9
$DIMALTZ
 70
    0
  9
$DIMALTTZ
 70
    0
  9
$DIMUPT
 70
    0
  9
$DIMDEC
 70
    2
  9
$DIMTDEC
 70
    2
  9
$DIMALTU
 70
    2
  9
$DIMALTTD
 70
    3
  9
$DIMTXSTY
  7
STANDARD
  9
$DIMAUNIT
 70
    0
  9
$DIMADEC
 70
    0
  9
$DIMALTRND
 40
0
  9
$DIMAZIN
 70
    0
  9
$DIMDSEP
 70
   44
  9
$DIMATFIT
 70
    3
  9
$DIMFRAC
 70
    0
  9
$DIMLDRBLK
  1
STANDARD
  9
$DIMLUNIT
 70
    2
  9
$DIMLWD
 70
   -2
  9
$DIMLWE
 70
   -2
  9
$DIMTMOVE
 70
    0
  9
$DIMFXL
 40
1
  9
$DIMFXLON
 70
    0
  9
$DIMJOGANG
 40
0.7854
  9
$DIMTFILL
 70
    0
  9
$DIMTFILLCLR
 70
    0
  9
$DIMARCSYM
 70
    0
  9
$DIMLTYPE
  6

  9
$DIMLTEX1
  6

  9
$DIMLTEX2
  6

  9
$LUNITS
 70
    2
  9
$LUPREC
 70
    4
  9
$SKETCHINC
 40
1
  9
$FILLETRAD
 40
0
  9
$AUNITS
 70
    0
  9
$AUPREC
 70
    2
  9
$MENU
  1
.
  9
$ELEVATION
 40
0
  9
$PELEVATION
 40
0
  9
$THICKNESS
 40
0
  9
$LIMCHECK
 70
    0
  9
$CHAMFERA
 40
0
  9
$CHAMFERB
 40
0
  9
$CHAMFERC
 40
0
  9
$CHAMFERD
 40
0
  9
$SKPOLY
 70
    0
  9
$USRTIMER
 70
    1
  9
$ANGBASE
 50
0
  9
$ANGDIR
 70
    0
  9
$PDMODE
 70
   34
  9
$PDSIZE
 40
0
  9
$PLINEWID
 40
0
  9
$SPLFRAME
 70
    0
  9
$SPLINETYPE
 70
    2
  9
$SPLINESEGS
 70
    8
  9
$HANDSEED
  5
20000
  9
$SURFTAB1
 70
    6
  9
$SURFTAB2
 70
    6
  9
$SURFTYPE
 70
    6
  9
$SURFU
 70
    6
  9
$SURFV
 70
    6
  9
$UCSBASE
  2

  9
$UCSNAME
  2

  9
$UCSORG
 10
0
 20
0
 30
0
  9
$UCSXDIR
 10
1
 20
0
 30
0
  9
$UCSYDIR
 10
0
 20
1
 30
0
  9
$UCSORTHOREF
  2

  9
$UCSORTHOVIEW
 70
    0
  9
$UCSORGTOP
 10
0
 20
0
 30
0
  9
$UCSORGBOTTOM
 10
0
 20
0
 30
0
  9
$UCSORGLEFT
 10
0
 20
0
 30
0
  9
$UCSORGRIGHT
 10
0
 20
0
 30
0
  9
$UCSORGFRONT
 10
0
 20
0
 30
0
  9
$UCSORGBACK
 10
0
 20
0
 30
0
  9
$PUCSBASE
  2

  9
$PUCSNAME
  2

  9
$PUCSORG
 10
0
 20
0
 30
0
  9
$PUCSXDIR
 10
1
 20
0
 30
0
  9
$PUCSYDIR
 10
0
 20
1
 30
0
  9
$PUCSORTHOREF
  2

  9
$PUCSORTHOVIEW
 70
    0
  9
$PUCSORGTOP
 10
0
 20
0
 30
0
  9
$PUCSORGBOTTOM
 10
0
 20
0
 30
0
  9
$PUCSORGLEFT
 10
0
 20
0
 30
0
  9
$PUCSORGRIGHT
 10
0
 20
0
 30
0
  9
$PUCSORGFRONT
 10
0
 20
0
 30
0
  9
$PUCSORGBACK
 10
0
 20
0
 30
0
  9
$USERI1
 70
    0
  9
$USERI2
 70
    0
  9
$USERI3
 70
    0
  9
$USERI4
 70
    0
  9
$USERI5
 70
    0
  9
$USERR1
 40
0
  9
$USERR2
 40
0
  9
$USERR3
 40
0
  9
$USERR4
 40
0
  9
$USERR5
 40
0
  9
$WORLDVIEW
 70
    1
  9
$SHADEDGE
 70
    3
  9
$SHADEDIF
 70
   70
  9
$TILEMODE
 70
    1
  9
$MAXACTVP
 70
   64
  9
$PINSBASE
 10
0
 20
0
 30
0
  9
$PLIMCHECK
 70
    0
  9
$PEXTMIN
 10
0
 20
0
 30
0
  9
$PEXTMAX
 10
0
 20
0
 30
0
  9
$GRIDMODE
 70
    1
  9
$SNAPSTYLE
 70
    0
  9
$PLIMMIN
 10
0
 20
0
  9
$PLIMMAX
 10
297
 20
210
  9
$UNITMODE
 70
    0
  9
$VISRETAIN
 70
    1
  9
$PLINEGEN
 70
    0
  9
$PSLTSCALE
 70
    1
  9
$TREEDEPTH
 70
 3020
  9
$CMLSTYLE
  2
Standard
  9
$CMLJUST
 70
    0
  9
$CMLSCALE
 40
20
  9
$PROXYGRAPHICS
 70
    1
  9
$MEASUREMENT
 70
    1
  9
$CELWEIGHT
370
   -1
  9
$ENDCAPS
280
    0
  9
$JOINSTYLE
280
    0
  9
$LWDISPLAY
290
    0
  9
$INSUNITS
 70
    4
  9
$HYPERLINKBASE
  1

  9
$STYLESHEET
  1

  9
$XEDIT
290
    1
  9
$CEPSNTYPE
380
    0
  9
$PSTYLEMODE
290
    1
  9
$EXTNAMES
290
    1
  9
$PSVPSCALE
 40
1
  9
$OLESTARTUP
290
    0
  9
$SORTENTS
280
  127
  9
$INDEXCTL
280
    0
  9
$HIDETEXT
280
    1
  9
$XCLIPFRAME
290
    0
  9
$HALOGAP
280
    0
  9
$OBSCOLOR
 70
  257
  9
$OBSLTYPE
280
    0
  9
$INTERSECTIONDISPLAY
280
    0
  9
$INTERSECTIONCOLOR
 70
  257
  9
$DIMASSOC
280
    1
  9
$PROJECTNAME
  1

  9
$CAMERADISPLAY
290
    0
  9
$LENSLENGTH
 40
50
  9
$CAMERAHEIGHT
 40
0
  9
$STEPSPERSEC
 40
2
  9
$STEPSIZE
 40
50
  9
$3DDWFPREC
 40
2
  9
$PSOLWIDTH
 40
5
  9
$PSOLHEIGHT
 40
80
  9
$LOFTANG1
 40
1.570796326794897
  9
$LOFTANG2
 40
1.570796326794897
  9
$LOFTMAG1
 40
0
  9
$LOFTMAG2
 40
0
  9
$LOFTPARAM
 70
    7
  9
$LOFTNORMALS
280
    1
  9
$LATITUDE
 40
1
  9
$LONGITUDE
 40
1
  9
$NORTHDIRECTION
 40
0
  9
$TIMEZONE
 70
-8000
  9
$LIGHTGLYPHDISPLAY
280
    1
  9
$TILEMODELIGHTSYNCH
280
    1
  9
$SOLIDHIST
280
    1
  9
$SHOWHIST
280
    1
  9
$DWFFRAME
280
    2
  9
$DGNFRAME
280
    0
  9
$REALWORLDSCALE
290
    1
  9
$INTERFERECOLOR
 62
    1
  9
$CSHADOW
280
    0
  9
$SHADOWPLANELOCATION
 40
0
  0
ENDSEC
  0
SECTION
  2
CLASSES
  0
ENDSEC
  0
SECTION
  2
TABLES
  0
TABLE
  2
VPORT
  5
8
330
0
100
AcDbSymbolTable
 70
    1
  0
VPORT
  5
31
330
2
100
AcDbSymbolTableRecord
100
AcDbViewportTableRecord
  2
*ACTIVE
 70
    0
 10
0
 20
0
 11
1
 21
1
 12
65.19553706505295
 22
61.03195915279878
 13
0
 23
0
 14
10
 24
10
 15
10
 25
10
 16
0
 26
0
 36
1
 17
0
 27
0
 37
0
 40
138.3120272314675
 41
1.885462555066079
 42
50
 43
0
 44
0
 50
0
 51
0
 71
    0
 72
  100
 73
    1
 74
    3
 75
    0
 76
    1
 77
    0
 78
    0
281
    0
 65
    1
110
0
120
0
130
0
111
1
121
0
131
0
112
0
122
1
132
0
 79
    0
146
0
348
10020
 60
    7
 61
    5
292
1
282
    1
141
0
142
0
 63
  250
421
3358443
  0
ENDTAB
  0
TABLE
  2
LTYPE
  5
5
330
0
100
AcDbSymbolTable
 70
    4
  0
LTYPE
  5
14
330
5
100
AcDbSymbolTableRecord
100
AcDbLinetypeTableRecord
  2
ByBlock
 70
    0
  3

 72
   65
 73
    0
 40
0
  0
LTYPE
  5
15
330
5
100
AcDbSymbolTableRecord
100
AcDbLinetypeTableRecord
  2
ByLayer
 70
    0
  3

 72
   65
 73
    0
 40
0
  0
LTYPE
  5
16
330
5
100
AcDbSymbolTableRecord
100
AcDbLinetypeTableRecord
  2
Continuous
 70
    0
  3
Solid line
 72
   65
 73
    0
 40
0
  0
LTYPE
  5
32
330
5
100
AcDbSymbolTableRecord
100
AcDbLinetypeTableRecord
  2
DOT
 70
    0
  3
Dot . . . . . . . . . . . . . . . . . . . . . .
 72
   65
 73
    2
 40
6.35
 49
0
 74
    0
 49
-6.35
 74
    0
  0
LTYPE
  5
33
330
5
100
AcDbSymbolTableRecord
100
AcDbLinetypeTableRecord
  2
DOTTINY
 70
    0
  3
Dot (.15x) .....................................
 72
   65
 73
    2
 40
0.9525
 49
0
 74
    0
 49
-0.9525
 74
    0
  0
LTYPE
  5
34
330
5
100
AcDbSymbolTableRecord
100
AcDbLinetypeTableRecord
  2
DOT2
 70
    0
  3
Dot (.5x) .....................................
 72
   65
 73
    2
 40
3.175
 49
0
 74
    0
 49
-3.175
 74
    0
  0
LTYPE
  5
35
330
5
100
AcDbSymbolTableRecord
100
AcDbLinetypeTableRecord
  2
DOTX2
 70
    0
  3
Dot (2x) .  .  .  .  .  .  .  .  .  .  .  .  .
 72
   65
 73
    2
 40
12.7
 49
0
 74
    0
 49
-12.7
 74
    0
  0
LTYPE
  5
36
330
5
100
AcDbSymbolTableRecord
100
AcDbLinetypeTableRecord
  2
DASHED
 70
    0
  3
Dashed _ _ _ _ _ _ _ _ _ _ _ _ _ _ _ _ _
 72
   65
 73
    2
 40
19.05
 49
12.7
 74
    0
 49
-6.35
 74
    0
  0
LTYPE
  5
37
330
5
100
AcDbSymbolTableRecord
100
AcDbLinetypeTableRecord
  2
DASHEDTINY
 70
    0
  3
Dashed (.15x) _ _ _ _ _ _ _ _ _ _ _ _ _ _ _ _ _
 72
   65
 73
    2
 40
2.8575
 49
1.905
 74
    0
 49
-0.9525
 74
    0
  0
LTYPE
  5
38
330
5
100
AcDbSymbolTableRecord
100
AcDbLinetypeTableRecord
  2
DASHED2
 70
    0
  3
Dashed (.5x) _ _ _ _ _ _ _ _ _ _ _ _ _ _ _ _ _
 72
   65
 73
    2
 40
9.524999999999999
 49
6.35
 74
    0
 49
-3.175
 74
    0
  0
LTYPE
  5
39
330
5
100
AcDbSymbolTableRecord
100
AcDbLinetypeTableRecord
  2
DASHEDX2
 70
    0
  3
Dashed (2x) ____  ____  ____  ____  ____  ___
 72
   65
 73
    2
 40
38.09999999999999
 49
25.4
 74
    0
 49
-12.7
 74
    0
  0
LTYPE
  5
3A
330
5
100
AcDbSymbolTableRecord
100
AcDbLinetypeTableRecord
  2
DASHDOT
 70
    0
  3
Dash dot __ . __ . __ . __ . __ . __ . __ . __
 72
   65
 73
    4
 40
25.4
 49
12.7
 74
    0
 49
-6.35
 74
    0
 49
0
 74
    0
 49
-6.35
 74
    0
  0
LTYPE
  5
3B
330
5
100
AcDbSymbolTableRecord
100
AcDbLinetypeTableRecord
  2
DASHDOTTINY
 70
    0
  3
Dash dot (.15x) _._._._._._._._._._._._._._._.
 72
   65
 73
    4
 40
3.81
 49
1.905
 74
    0
 49
-0.9525
 74
    0
 49
0
 74
    0
 49
-0.9525
 74
    0
  0
LTYPE
  5
3C
330
5
100
AcDbSymbolTableRecord
100
AcDbLinetypeTableRecord
  2
DASHDOT2
 70
    0
  3
Dash dot (.5x) _._._._._._._._._._._._._._._.
 72
   65
 73
    4
 40
12.7
 49
6.35
 74
    0
 49
-3.175
 74
    0
 49
0
 74
    0
 49
-3.175
 74
    0
  0
LTYPE
  5
3D
330
5
100
AcDbSymbolTableRecord
100
AcDbLinetypeTableRecord
  2
DASHDOTX2
 70
    0
  3
Dash dot (2x) ____  .  ____  .  ____  .  ___
 72
   65
 73
    4
 40
50.8
 49
25.4
 74
    0
 49
-12.7
 74
    0
 49
0
 74
    0
 49
-12.7
 74
    0
  0
LTYPE
  5
3E
330
5
100
AcDbSymbolTableRecord
100
AcDbLinetypeTableRecord
  2
DIVIDE
 70
    0
  3
Divide ____ . . ____ . . ____ . . ____ . . ____
 72
   65
 73
    6
 40
31.75
 49
12.7
 74
    0
 49
-6.35
 74
    0
 49
0
 74
    0
 49
-6.35
 74
    0
 49
0
 74
    0
 49
-6.35
 74
    0
  0
LTYPE
  5
3F
330
5
100
AcDbSymbolTableRecord
100
AcDbLinetypeTableRecord
  2
DIVIDETINY
 70
    0
  3
Divide (.15x) __..__..__..__..__..__..__..__.._
 72
   65
 73
    6
 40
4.7625
 49
1.905
 74
    0
 49
-0.9525
 74
    0
 49
0
 74
    0
 49
-0.9525
 74
    0
 49
0
 74
    0
 49
-0.9525
 74
    0
  0
LTYPE
  5
40
330
5
100
AcDbSymbolTableRecord
100
AcDbLinetypeTableRecord
  2
DIVIDE2
 70
    0
  3
Divide (.5x) __..__..__..__..__..__..__..__.._
 72
   65
 73
    6
 40
15.875
 49
6.35
 74
    0
 49
-3.175
 74
    0
 49
0
 74
    0
 49
-3.175
 74
    0
 49
0
 74
    0
 49
-3.175
 74
    0
  0
LTYPE
  5
41
330
5
100
AcDbSymbolTableRecord
100
AcDbLinetypeTableRecord
  2
DIVIDEX2
 70
    0
  3
Divide (2x) ________  .  .  ________  .  .  _
 72
   65
 73
    6
 40
63.5
 49
25.4
 74
    0
 49
-12.7
 74
    0
 49
0
 74
    0
 49
-12.7
 74
    0
 49
0
 74
    0
 49
-12.7
 74
    0
  0
LTYPE
  5
42
330
5
100
AcDbSymbolTableRecord
100
AcDbLinetypeTableRecord
  2
BORDER
 70
    0
  3
Border __ __ . __ __ . __ __ . __ __ . __ __ .
 72
   65
 73
    6
 40
44.45
 49
12.7
 74
    0
 49
-6.35
 74
    0
 49
12.7
 74
    0
 49
-6.35
 74
    0
 49
0
 74
    0
 49
-6.35
 74
    0
  0
LTYPE
  5
43
330
5
100
AcDbSymbolTableRecord
100
AcDbLinetypeTableRecord
  2
BORDERTINY
 70
    0
  3
Border (.15x) __.__.__.__.__.__.__.__.__.__.__.
 72
   65
 73
    6
 40
6.6675
 49
1.905
 74
    0
 49
-0.9525
 74
    0
 49
1.905
 74
    0
 49
-0.9525
 74
    0
 49
0
 74
    0
 49
-0.9525
 74
    0
  0
LTYPE
  5
44
330
5
100
AcDbSymbolTableRecord
100
AcDbLinetypeTableRecord
  2
BORDER2
 70
    0
  3
Border (.5x) __.__.__.__.__.__.__.__.__.__.__.
 72
   65
 73
    6
 40
22.225
 49
6.35
 74
    0
 49
-3.175
 74
    0
 49
6.35
 74
    0
 49
-3.175
 74
    0
 49
0
 74
    0
 49
-3.175
 74
    0
  0
LTYPE
  5
45
330
5
100
AcDbSymbolTableRecord
100
AcDbLinetypeTableRecord
  2
BORDERX2
 70
    0
  3
Border (2x) ____  ____  .  ____  ____  .  ___
 72
   65
 73
    6
 40
88.89999999999999
 49
25.4
 74
    0
 49
-12.7
 74
    0
 49
25.4
 74
    0
 49
-12.7
 74
    0
 49
0
 74
    0
 49
-12.7
 74
    0
  0
LTYPE
  5
46
330
5
100
AcDbSymbolTableRecord
100
AcDbLinetypeTableRecord
  2
CENTER
 70
    0
  3
Center ____ _ ____ _ ____ _ ____ _ ____ _ ____
 72
   65
 73
    4
 40
50.8
 49
31.75
 74
    0
 49
-6.35
 74
    0
 49
6.35
 74
    0
 49
-6.35
 74
    0
  0
LTYPE
  5
47
330
5
100
AcDbSymbolTableRecord
100
AcDbLinetypeTableRecord
  2
CENTERTINY
 70
    0
  3
Center (.15x) ___ _ ___ _ ___ _ ___ _ ___ _ ___
 72
   65
 73
    4
 40
7.619999999999999
 49
4.7625
 74
    0
 49
-0.9525
 74
    0
 49
0.9525
 74
    0
 49
-0.9525
 74
    0
  0
LTYPE
  5
48
330
5
100
AcDbSymbolTableRecord
100
AcDbLinetypeTableRecord
  2
CENTER2
 70
    0
  3
Center (.5x) ___ _ ___ _ ___ _ ___ _ ___ _ ___
 72
   65
 73
    4
 40
28.575
 49
19.05
 74
    0
 49
-3.175
 74
    0
 49
3.175
 74
    0
 49
-3.175
 74
    0
  0
LTYPE
  5
49
330
5
100
AcDbSymbolTableRecord
100
AcDbLinetypeTableRecord
  2
CENTERX2
 70
    0
  3
Center (2x) ________  __  ________  __  _____
 72
   65
 73
    4
 40
101.6
 49
63.5
 74
    0
 49
-12.7
 74
    0
 49
12.7
 74
    0
 49
-12.7
 74
    0
  0
ENDTAB
  0
TABLE
  2
LAYER
  5
2
330
0
100
AcDbSymbolTable
 70
    1
  0
LAYER
  5
10
330
2
100
AcDbSymbolTableRecord
100
AcDbLayerTableRecord
  2
0
 70
    1
 62
    7
  6
CONTINUOUS
370
    0
390
F
  0
LAYER
  5
4A
330
2
100
AcDbSymbolTableRecord
100
AcDbLayerTableRecord
  2
BearingHolder
 70
    0
 62
    4
  6
CONTINUOUS
370
    0
390
F
  0
LAYER
  5
4B
330
2
100
AcDbSymbolTableRecord
100
AcDbLayerTableRecord
  2
BrushlessMotorHolder
 70
    0
 62
    3
  6
CONTINUOUS
370
    0
390
F
  0
LAYER
  5
4C
330
2
100
AcDbSymbolTableRecord
100
AcDbLayerTableRecord
  2
HolderProfile
 70
    0
 62
    6
  6
CONTINUOUS
370
    0
390
F
  0
LAYER
  5
4D
330
2
100
AcDbSymbolTableRecord
100
AcDbLayerTableRecord
  2
construction
 70
    1
 62
    2
  6
CONTINUOUS
370
    0
390
F
  0
ENDTAB
  0
TABLE
  2
STYLE
  5
3
330
0
100
AcDbSymbolTable
 70
    3
  0
STYLE
  5
4E
330
2
100
AcDbSymbolTableRecord
100
AcDbTextStyleTableRecord
  2
Standard
 70
    0
 40
0
 41
1
 50
0
 71
    0
 42
1
  3
txt
  4

  0
ENDTAB
  0
TABLE
  2
VIEW
  5
6
330
0
100
AcDbSymbolTable
 70
    0
  0
ENDTAB
  0
TABLE
  2
UCS
  5
7
330
0
100
AcDbSymbolTable
 70
    0
  0
ENDTAB
  0
TABLE
  2
APPID
  5
9
330
0
100
AcDbSymbolTable
 70
    1
  0
APPID
  5
12
330
9
100
AcDbSymbolTableRecord
100
AcDbRegAppTableRecord
  2
ACAD
 70
    0
  0
APPID
  5
4F
330
9
100
AcDbSymbolTableRecord
100
AcDbRegAppTableRecord
  2
LibreCad
 70
    0
  0
ENDTAB
  0
TABLE
  2
DIMSTYLE
  5
A
330
0
100
AcDbSymbolTable
 70
    1
100
AcDbDimStyleTable
 71
    1
  0
DIMSTYLE
105
50
330
A
100
AcDbSymbolTableRecord
100
AcDbDimStyleTableRecord
  2
Standard
 70
    0
 40
1
 41
2.5
 42
0.625
 43
0.38
 44
1.25
 45
0
 46
0
 47
0
 48
0
 49
1
140
2.5
141
0.09
142
0
143
25.4
144
1
145
0
146
1
147
0.625
148
0
 71
    0
 72
    0
 73
    0
 74
    1
 75
    0
 76
    0
 77
    0
 78
    8
 79
    0
170
    0
171
    2
172
    0
173
    0
174
    0
175
    0
176
    0
177
    0
178
    0
179
    0
271
    2
272
    4
273
    2
274
    2
275
    0
276
    0
277
    2
278
   44
279
    0
280
    0
281
    0
282
    0
283
    1
284
    0
285
    0
286
    0
288
    0
289
    3
340
STANDARD
341

371
   -2
372
   -2
  0
ENDTAB
  0
TABLE
  2
BLOCK_RECORD
  5
1
330
0
100
AcDbSymbolTable
 70
    2
  0
BLOCK_RECORD
  5
1F
330
1
100
AcDbSymbolTableRecord
100
AcDbBlockTableRecord
  2
*Model_Space
 70
    0
280
    1
281
    0
  0
BLOCK_RECORD
  5
1E
330
1
100
AcDbSymbolTableRecord
100
AcDbBlockTableRecord
  2
*Paper_Space
 70
    0
280
    1
281
    0
  0
ENDTAB
  0
ENDSEC
  0
SECTION
  2
BLOCKS
  0
BLOCK
  5
20
330
1F
100
AcDbEntity
  8
0
100
AcDbBlockBegin
  2
*Model_Space
 70
    0
 10
0
 20
0
 30
0
  3
*Model_Space
  1

  0
ENDBLK
  5
21
330
1F
100
AcDbEntity
  8
0
100
AcDbBlockEnd
  0
BLOCK
  5
1C
330
1B
100
AcDbEntity
  8
0
100
AcDbBlockBegin
  2
*Paper_Space
 70
    0
 10
0
 20
0
 30
0
  3
*Paper_Space
  1

  0
ENDBLK
  5
1D
330
1F
100
AcDbEntity
  8
0
100
AcDbBlockEnd
  0
ENDSEC
  0
SECTION
  2
ENTITIES
  0
LINE
  5
51
100
AcDbEntity
  8
construction
  6
ByLayer
 62
  256
370
   -1
100
AcDbLine
 10
-100
 20
0
 11
100
 21
0
  0
LINE
  5
52
100
AcDbEntity
  8
construction
  6
ByLayer
 62
  256
370
   -1
100
AcDbLine
 10
-75
 20
49.99999999999999
 11
-75
 21
-50.00000000000001
  0
LINE
  5
53
100
AcDbEntity
  8
construction
  6
ByLayer
 62
  256
370
   -1
100
AcDbLine
 10
75
 20
50.00000000000002
 11
75
 21
-49.99999999999998
  0
CIRCLE
  5
54
100
AcDbEntity
  8
BearingHolder
  6
ByLayer
 62
  256
370
   -1
100
AcDbCircle
 10
-75
 20
0
 40
5.65
  0
CIRCLE
  5
55
100
AcDbEntity
  8
BearingHolder
  6
ByLayer
 62
  256
370
   -1
100
AcDbCircle
 10
75
 20
0
 40
5.65
  0
ARC
  5
56
100
AcDbEntity
  8
BearingHolder
  6
ByLayer
 62
  256
370
   -1
100
AcDbCircle
 10
-66.59628058535979
 20
-12
 40
6
100
AcDbArc
 50
90
 51
125.0039371857576
  0
ARC
  5
57
100
AcDbEntity
  8
BearingHolder
  6
ByLayer
 62
  256
370
   -1
100
AcDbCircle
 10
-75
 20
0
 40
8.65
100
AcDbArc
 50
54.99606281424244
 51
305.0039371857577
  0
ARC
  5
58
100
AcDbEntity
  8
BearingHolder
  6
ByLayer
 62
  256
370
   -1
100
AcDbCircle
 10
-66.59628058535984
 20
12
 40
6
100
AcDbArc
 50
234.9960628142425
 51
270
  0
LINE
  5
59
100
AcDbEntity
  8
BearingHolder
  6
ByLayer
 62
  256
370
   -1
100
AcDbLine
 10
-66.59628058535984
 20
6
 11
66.59628058535978
 21
6
  0
ARC
  5
5A
100
AcDbEntity
  8
BearingHolder
  6
ByLayer
 62
  256
370
   -1
100
AcDbCircle
 10
66.59628058535988
 20
12
 40
6
100
AcDbArc
 50
269.9999999999998
 51
305.0039371857576
  0
LINE
  5
5B
100
AcDbEntity
  8
BearingHolder
  6
ByLayer
 62
  256
370
   -1
100
AcDbLine
 10
-66.59628058535979
 20
-6
 11
66.59628058535968
 21
-6
  0
ARC
  5
5C
100
AcDbEntity
  8
BearingHolder
  6
ByLayer
 62
  256
370
   -1
100
AcDbCircle
 10
75
 20
0
 40
8.65
100
AcDbArc
 50
234.9960628142422
 51
125.0039371857577
  0
ARC
  5
5D
100
AcDbEntity
  8
BearingHolder
  6
ByLayer
 62
  256
370
   -1
100
AcDbCircle
 10
66.59628058535978
 20
-12
 40
6
100
AcDbArc
 50
54.99606281424224
 51
90.00000000000016
  0
ARC
  5
5E
100
AcDbEntity
  8
BearingHolder
  6
ByLayer
 62
  256
370
   -1
100
AcDbCircle
 10
-64.39705229664884
 20
-1.000000000000004
 40
2
100
AcDbArc
 50
174.6121776932931
 51
270
  0
ARC
  5
5F
100
AcDbEntity
  8
BearingHolder
  6
ByLayer
 62
  256
370
   -1
100
AcDbCircle
 10
-75
 20
0
 40
8.65
100
AcDbArc
 50
354.6121776932931
 51
5.387822306706851
  0
ARC
  5
60
100
AcDbEntity
  8
BearingHolder
  6
ByLayer
 62
  256
370
   -1
100
AcDbCircle
 10
-64.39705229664887
 20
1
 40
2
100
AcDbArc
 50
90
 51
185.3878223067069
  0
ARC
  5
61
100
AcDbEntity
  8
BearingHolder
  6
ByLayer
 62
  256
370
   -1
100
AcDbCircle
 10
64.39705229664881
 20
-1.000000000000004
 40
2
100
AcDbArc
 50
270
 51
5.387822306706851
  0
ARC
  5
62
100
AcDbEntity
  8
BearingHolder
  6
ByLayer
 62
  256
370
   -1
100
AcDbCircle
 10
75
 20
0
 40
8.65
100
AcDbArc
 50
174.6121776932931
 51
185.3878223067069
  0
ARC
  5
63
100
AcDbEntity
  8
BearingHolder
  6
ByLayer
 62
  256
370
   -1
100
AcDbCircle
 10
64.39705229664894
 20
1
 40
2
100
AcDbArc
 50
354.6121776932929
 51
89.99999999999959
  0
LINE
  5
64
100
AcDbEntity
  8
construction
  6
ByLayer
 62
  256
370
   -1
100
AcDbLine
 10
-65.19917873807231
 20
-2.832100753771484
 11
-61.83201379794131
 21
3
  0
LINE
  5
65
100
AcDbEntity
  8
construction
  6
ByLayer
 62
  256
370
   -1
100
AcDbLine
 10
-42.20210464549402
 20
-3
 11
-38.73800303035629
 21
3
  0
LINE
  5
66
100
AcDbEntity
  8
construction
  6
ByLayer
 62
  256
370
   -1
100
AcDbLine
 10
-30.54402927239882
 20
3
 11
-27.07992765726105
 21
-3
  0
LINE
  5
67
100
AcDbEntity
  8
construction
  6
ByLayer
 62
  256
370
   -1
100
AcDbLine
 10
-19.10809387790901
 20
-3
 11
-15.64399226277127
 21
3
  0
LINE
  5
68
100
AcDbEntity
  8
construction
  6
ByLayer
 62
  256
370
   -1
100
AcDbLine
 10
-7.450018504813739
 20
3
 11
-3.985916889676052
 21
-3
  0
LINE
  5
69
100
AcDbEntity
  8
construction
  6
ByLayer
 62
  256
370
   -1
100
AcDbLine
 10
3.985916889676048
 20
-3
 11
7.450018504813736
 21
3
  0
LINE
  5
6A
100
AcDbEntity
  8
construction
  6
ByLayer
 62
  256
370
   -1
100
AcDbLine
 10
15.64399226277127
 20
3
 11
19.10809387790901
 21
-3
  0
LINE
  5
6B
100
AcDbEntity
  8
construction
  6
ByLayer
 62
  256
370
   -1
100
AcDbLine
 10
27.07992765726107
 20
-3
 11
30.54402927239879
 21
3
  0
LINE
  5
6C
100
AcDbEntity
  8
construction
  6
ByLayer
 62
  256
370
   -1
100
AcDbLine
 10
38.73800303035627
 20
3
 11
42.20210464549405
 21
-3
  0
LINE
  5
6D
100
AcDbEntity
  8
construction
  6
ByLayer
 62
  256
370
   -1
100
AcDbLine
 10
50.17393842484608
 20
-3
 11
53.6380400399838
 21
3
  0
LINE
  5
6E
100
AcDbEntity
  8
construction
  6
ByLayer
 62
  256
370
   -1
100
AcDbLine
 10
61.83201379794132
 20
3
 11
65.19917873807226
 21
-2.832100753771338
  0
LINE
  5
6F
100
AcDbEntity
  8
construction
  6
ByLayer
 62
  256
370
   -1
100
AcDbLine
 10
-53.63804003998386
 20
3
 11
-50.17393842484609
 21
-3
  0
ARC
  5
70
100
AcDbEntity
  8
BearingHolder
  6
ByLayer
 62
  256
370
   -1
100
AcDbCircle
 10
-48.44188761727721
 20
1
 40
2
100
AcDbArc
 50
90
 51
209.9999999999999
  0
LINE
  5
71
100
AcDbEntity
  8
BearingHolder
  6
ByLayer
 62
  256
370
   -1
100
AcDbLine
 10
-50.17393842484609
 20
1.77635683940025e-15
 11
-49.01923788646683
 21
-1.999999999999996
  0
ARC
  5
72
100
AcDbEntity
  8
BearingHolder
  6
ByLayer
 62
  256
370
   -1
100
AcDbCircle
 10
-47.28718707889797
 20
-1
 40
2
100
AcDbArc
 50
209.9999999999999
 51
270
  0
ARC
  5
73
100
AcDbEntity
  8
BearingHolder
  6
ByLayer
 62
  256
370
   -1
100
AcDbCircle
 10
-56.52479138593196
 20
1
 40
2
100
AcDbArc
 50
29.99999999999996
 51
90
  0
LINE
  5
74
100
AcDbEntity
  8
BearingHolder
  6
ByLayer
 62
  256
370
   -1
100
AcDbLine
 10
-54.79274057836308
 20
1.999999999999997
 11
-53.63804003998386
 21
-4.884981308350689e-15
  0
LINE
  5
75
100
AcDbEntity
  8
BearingHolder
  6
ByLayer
 62
  256
370
   -1
100
AcDbLine
 10
-64.39705229664884
 20
-3
 11
-55.37009084755272
 21
-3
  0
ARC
  5
76
100
AcDbEntity
  8
BearingHolder
  6
ByLayer
 62
  256
370
   -1
100
AcDbCircle
 10
-55.37009084755272
 20
-1
 40
2
100
AcDbArc
 50
270
 51
29.99999999999996
  0
ARC
  5
77
100
AcDbEntity
  8
BearingHolder
  6
ByLayer
 62
  256
370
   -1
100
AcDbCircle
 10
-24.19317631131293
 20
-1
 40
2
100
AcDbArc
 50
210
 51
270
  0
LINE
  5
78
100
AcDbEntity
  8
BearingHolder
  6
ByLayer
 62
  256
370
   -1
100
AcDbLine
 10
-24.19317631131293
 20
-3
 11
-21.99484522385714
 21
-3
  0
ARC
  5
79
100
AcDbEntity
  8
BearingHolder
  6
ByLayer
 62
  256
370
   -1
100
AcDbCircle
 10
-21.99484522385714
 20
-1
 40
2
100
AcDbArc
 50
270
 51
330
  0
LINE
  5
7A
100
AcDbEntity
  8
BearingHolder
  6
ByLayer
 62
  256
370
   -1
100
AcDbLine
 10
-20.26279441628825
 20
-2.000000000000001
 11
-19.10809387790902
 21
-8.881784197001252e-16
  0
ARC
  5
7B
100
AcDbEntity
  8
BearingHolder
  6
ByLayer
 62
  256
370
   -1
100
AcDbCircle
 10
-20.84014468547793
 20
1
 40
2
100
AcDbArc
 50
330
 51
90
  0
LINE
  5
7C
100
AcDbEntity
  8
BearingHolder
  6
ByLayer
 62
  256
370
   -1
100
AcDbLine
 10
-25.34787684969216
 20
3
 11
-20.84014468547793
 21
3
  0
LINE
  5
7D
100
AcDbEntity
  8
BearingHolder
  6
ByLayer
 62
  256
370
   -1
100
AcDbLine
 10
-27.07992765726105
 20
8.881784197001252e-16
 11
-25.92522711888181
 21
-2.000000000000002
  0
ARC
  5
7E
100
AcDbEntity
  8
BearingHolder
  6
ByLayer
 62
  256
370
   -1
100
AcDbCircle
 10
-25.34787684969216
 20
1
 40
2
100
AcDbArc
 50
90
 51
210
  0
ARC
  5
7F
100
AcDbEntity
  8
BearingHolder
  6
ByLayer
 62
  256
370
   -1
100
AcDbCircle
 10
-13.91194145520238
 20
-1
 40
2
100
AcDbArc
 50
150
 51
270
  0
LINE
  5
80
100
AcDbEntity
  8
BearingHolder
  6
ByLayer
 62
  256
370
   -1
100
AcDbLine
 10
-15.64399226277127
 20
8.881784197001252e-16
 11
-14.489291724392
 21
2
  0
ARC
  5
81
100
AcDbEntity
  8
BearingHolder
  6
ByLayer
 62
  256
370
   -1
100
AcDbCircle
 10
-12.75724091682312
 20
1
 40
2
100
AcDbArc
 50
90
 51
150
  0
LINE
  5
82
100
AcDbEntity
  8
BearingHolder
  6
ByLayer
 62
  256
370
   -1
100
AcDbLine
 10
-12.75724091682312
 20
3
 11
-10.33676985076189
 21
3
  0
ARC
  5
83
100
AcDbEntity
  8
BearingHolder
  6
ByLayer
 62
  256
370
   -1
100
AcDbCircle
 10
-10.33676985076189
 20
1
 40
2
100
AcDbArc
 50
29.99999999999996
 51
90
  0
LINE
  5
84
100
AcDbEntity
  8
BearingHolder
  6
ByLayer
 62
  256
370
   -1
100
AcDbLine
 10
-8.604719043193036
 20
2
 11
-7.450018504813741
 21
-4.440892098500626e-16
  0
LINE
  5
85
100
AcDbEntity
  8
BearingHolder
  6
ByLayer
 62
  256
370
   -1
100
AcDbLine
 10
-13.91194145520238
 20
-3
 11
-9.182069312382628
 21
-3
  0
ARC
  5
86
100
AcDbEntity
  8
BearingHolder
  6
ByLayer
 62
  256
370
   -1
100
AcDbCircle
 10
-9.182069312382628
 20
-1
 40
2
100
AcDbArc
 50
270
 51
29.99999999999996
  0
ARC
  5
87
100
AcDbEntity
  8
BearingHolder
  6
ByLayer
 62
  256
370
   -1
100
AcDbCircle
 10
-1.099165543727897
 20
-1
 40
2
100
AcDbArc
 50
210
 51
270
  0
LINE
  5
88
100
AcDbEntity
  8
BearingHolder
  6
ByLayer
 62
  256
370
   -1
100
AcDbLine
 10
-3.985916889676052
 20
0
 11
-2.831216351296727
 21
-2
  0
ARC
  5
89
100
AcDbEntity
  8
BearingHolder
  6
ByLayer
 62
  256
370
   -1
100
AcDbCircle
 10
-2.253866082107165
 20
1
 40
2
100
AcDbArc
 50
90
 51
210
  0
LINE
  5
8A
100
AcDbEntity
  8
BearingHolder
  6
ByLayer
 62
  256
370
   -1
100
AcDbLine
 10
-1.099165543727897
 20
-3
 11
1.099165543727894
 21
-3
  0
ARC
  5
8B
100
AcDbEntity
  8
BearingHolder
  6
ByLayer
 62
  256
370
   -1
100
AcDbCircle
 10
1.099165543727894
 20
-1
 40
2
100
AcDbArc
 50
270
 51
330
  0
LINE
  5
8C
100
AcDbEntity
  8
BearingHolder
  6
ByLayer
 62
  256
370
   -1
100
AcDbLine
 10
2.831216351296781
 20
-2
 11
3.985916889676048
 21
-4.440892098500626e-16
  0
LINE
  5
8D
100
AcDbEntity
  8
BearingHolder
  6
ByLayer
 62
  256
370
   -1
100
AcDbLine
 10
-2.253866082107164
 20
3
 11
2.25386608210716
 21
3
  0
ARC
  5
8E
100
AcDbEntity
  8
BearingHolder
  6
ByLayer
 62
  256
370
   -1
100
AcDbCircle
 10
2.253866082107161
 20
1
 40
2
100
AcDbArc
 50
330
 51
89.99999999999994
  0
ARC
  5
8F
100
AcDbEntity
  8
BearingHolder
  6
ByLayer
 62
  256
370
   -1
100
AcDbCircle
 10
10.33676985076192
 20
1
 40
2
100
AcDbArc
 50
90
 51
150
  0
LINE
  5
90
100
AcDbEntity
  8
BearingHolder
  6
ByLayer
 62
  256
370
   -1
100
AcDbLine
 10
7.450018504813737
 20
4.440892098500626e-16
 11
8.604719043193032
 21
2
  0
ARC
  5
91
100
AcDbEntity
  8
BearingHolder
  6
ByLayer
 62
  256
370
   -1
100
AcDbCircle
 10
9.182069312382652
 20
-1
 40
2
100
AcDbArc
 50
150
 51
270
  0
LINE
  5
92
100
AcDbEntity
  8
BearingHolder
  6
ByLayer
 62
  256
370
   -1
100
AcDbLine
 10
10.33676985076192
 20
3
 11
12.75724091682314
 21
3
  0
ARC
  5
93
100
AcDbEntity
  8
BearingHolder
  6
ByLayer
 62
  256
370
   -1
100
AcDbCircle
 10
12.75724091682314
 20
1
 40
2
100
AcDbArc
 50
29.99999999999996
 51
90
  0
LINE
  5
94
100
AcDbEntity
  8
BearingHolder
  6
ByLayer
 62
  256
370
   -1
100
AcDbLine
 10
14.489291724392
 20
2
 11
15.64399226277127
 21
2.220446049250313e-16
  0
LINE
  5
95
100
AcDbEntity
  8
BearingHolder
  6
ByLayer
 62
  256
370
   -1
100
AcDbLine
 10
9.182069312382652
 20
-3
 11
13.91194145520238
 21
-3
  0
ARC
  5
96
100
AcDbEntity
  8
BearingHolder
  6
ByLayer
 62
  256
370
   -1
100
AcDbCircle
 10
13.91194145520238
 20
-1
 40
2
100
AcDbArc
 50
270.0000000000001
 51
29.99999999999996
  0
ARC
  5
97
100
AcDbEntity
  8
BearingHolder
  6
ByLayer
 62
  256
370
   -1
100
AcDbCircle
 10
20.84014468547792
 20
1
 40
2
100
AcDbArc
 50
90
 51
210
  0
LINE
  5
98
100
AcDbEntity
  8
BearingHolder
  6
ByLayer
 62
  256
370
   -1
100
AcDbLine
 10
19.10809387790901
 20
-1.332267629550188e-15
 11
20.26279441628825
 21
-1.999999999999999
  0
ARC
  5
99
100
AcDbEntity
  8
BearingHolder
  6
ByLayer
 62
  256
370
   -1
100
AcDbCircle
 10
21.99484522385714
 20
-1
 40
2
100
AcDbArc
 50
210
 51
270
  0
LINE
  5
9A
100
AcDbEntity
  8
BearingHolder
  6
ByLayer
 62
  256
370
   -1
100
AcDbLine
 10
21.99484522385714
 20
-3
 11
24.19317631131292
 21
-3
  0
ARC
  5
9B
100
AcDbEntity
  8
BearingHolder
  6
ByLayer
 62
  256
370
   -1
100
AcDbCircle
 10
24.19317631131292
 20
-1
 40
2
100
AcDbArc
 50
270
 51
330.0000000000001
  0
LINE
  5
9C
100
AcDbEntity
  8
BearingHolder
  6
ByLayer
 62
  256
370
   -1
100
AcDbLine
 10
25.92522711888183
 20
-2
 11
27.07992765726107
 21
0
  0
LINE
  5
9D
100
AcDbEntity
  8
BearingHolder
  6
ByLayer
 62
  256
370
   -1
100
AcDbLine
 10
20.84014468547792
 20
3
 11
25.34787684969216
 21
3
  0
ARC
  5
9E
100
AcDbEntity
  8
BearingHolder
  6
ByLayer
 62
  256
370
   -1
100
AcDbCircle
 10
25.34787684969216
 20
1
 40
2
100
AcDbArc
 50
330.0000000000001
 51
90
  0
LINE
  5
9F
100
AcDbEntity
  8
BearingHolder
  6
ByLayer
 62
  256
370
   -1
100
AcDbLine
 10
55.37009084755272
 20
-3
 11
64.39705229664881
 21
-3
  0
ARC
  5
A0
100
AcDbEntity
  8
BearingHolder
  6
ByLayer
 62
  256
370
   -1
100
AcDbCircle
 10
55.37009084755272
 20
-1
 40
2
100
AcDbArc
 50
150
 51
270
  0
LINE
  5
A1
100
AcDbEntity
  8
BearingHolder
  6
ByLayer
 62
  256
370
   -1
100
AcDbLine
 10
53.6380400399838
 20
-2.220446049250313e-15
 11
54.7927405783631
 21
1.999999999999995
  0
ARC
  5
A2
100
AcDbEntity
  8
BearingHolder
  6
ByLayer
 62
  256
370
   -1
100
AcDbCircle
 10
56.52479138593196
 20
1
 40
2
100
AcDbArc
 50
90
 51
150.0000000000001
  0
CIRCLE
  5
A3
100
AcDbEntity
  8
construction
  6
ByLayer
 62
  256
370
   -1
100
AcDbCircle
 10
-75
 20
0
 40
8
  0
CIRCLE
  5
A4
100
AcDbEntity
  8
construction
  6
ByLayer
 62
  256
370
   -1
100
AcDbCircle
 10
75
 20
0
 40
8
  0
CIRCLE
  5
A5
100
AcDbEntity
  8
construction
  6
ByLayer
 62
  256
370
   -1
100
AcDbCircle
 10
-75
 20
0
 40
9.5
  0
CIRCLE
  5
A6
100
AcDbEntity
  8
construction
  6
ByLayer
 62
  256
370
   -1
100
AcDbCircle
 10
75
 20
0
 40
9.5
  0
LINE
  5
A7
100
AcDbEntity
  8
construction
  6
ByLayer
 62
  256
370
   -1
100
AcDbLine
 10
-110.3553390593274
 20
35.35533905932737
 11
-39.64466094067262
 21
-35.35533905932737
  0
LINE
  5
A8
100
AcDbEntity
  8
construction
  6
ByLayer
 62
  256
370
   -1
100
AcDbLine
 10
39.64466094067262
 20
35.35533905932737
 11
110.3553390593273
 21
-35.35533905932737
  0
LINE
  5
A9
100
AcDbEntity
  8
construction
  6
ByLayer
 62
  256
370
   -1
100
AcDbLine
 10
-110.3553390593274
 20
-35.35533905932737
 11
-39.64466094067262
 21
35.35533905932737
  0
LINE
  5
AA
100
AcDbEntity
  8
construction
  6
ByLayer
 62
  256
370
   -1
100
AcDbLine
 10
39.64466094067262
 20
-35.35533905932737
 11
110.3553390593273
 21
35.35533905932737
  0
CIRCLE
  5
AB
100
AcDbEntity
  8
BrushlessMotorHolder
  6
ByLayer
 62
  256
370
   -1
100
AcDbCircle
 10
-81.7175144212721
 20
6.717514421272099
 40
1.75
  0
CIRCLE
  5
AC
100
AcDbEntity
  8
BrushlessMotorHolder
  6
ByLayer
 62
  256
370
   -1
100
AcDbCircle
 10
-68.28248557872787
 20
-6.717514421272124
 40
1.75
  0
CIRCLE
  5
AD
100
AcDbEntity
  8
BrushlessMotorHolder
  6
ByLayer
 62
  256
370
   -1
100
AcDbCircle
 10
-80.65685424949226
 20
-5.656854249492264
 40
1.75
  0
CIRCLE
  5
AE
100
AcDbEntity
  8
BrushlessMotorHolder
  6
ByLayer
 62
  256
370
   -1
100
AcDbCircle
 10
-69.34314575050772
 20
5.656854249492277
 40
1.75
  0
CIRCLE
  5
AF
100
AcDbEntity
  8
BrushlessMotorHolder
  6
ByLayer
 62
  256
370
   -1
100
AcDbCircle
 10
68.28248557872784
 20
6.717514421272124
 40
1.75
  0
CIRCLE
  5
B0
100
AcDbEntity
  8
BrushlessMotorHolder
  6
ByLayer
 62
  256
370
   -1
100
AcDbCircle
 10
81.71751442127207
 20
-6.717514421272099
 40
1.75
  0
CIRCLE
  5
B1
100
AcDbEntity
  8
BrushlessMotorHolder
  6
ByLayer
 62
  256
370
   -1
100
AcDbCircle
 10
69.34314575050772
 20
-5.656854249492277
 40
1.75
  0
CIRCLE
  5
B2
100
AcDbEntity
  8
BrushlessMotorHolder
  6
ByLayer
 62
  256
370
   -1
100
AcDbCircle
 10
80.6568542494922
 20
5.656854249492264
 40
1.75
  0
ARC
  5
B3
100
AcDbEntity
  8
BrushlessMotorHolder
  6
ByLayer
 62
  256
370
   -1
100
AcDbCircle
 10
-24.19317631131293
 20
-1
 40
2
100
AcDbArc
 50
210
 51
270
  0
LINE
  5
B4
100
AcDbEntity
  8
BrushlessMotorHolder
  6
ByLayer
 62
  256
370
   -1
100
AcDbLine
 10
-24.19317631131293
 20
-3
 11
-21.99484522385714
 21
-3
  0
ARC
  5
B5
100
AcDbEntity
  8
BrushlessMotorHolder
  6
ByLayer
 62
  256
370
   -1
100
AcDbCircle
 10
-21.99484522385714
 20
-1
 40
2
100
AcDbArc
 50
270
 51
330
  0
LINE
  5
B6
100
AcDbEntity
  8
BrushlessMotorHolder
  6
ByLayer
 62
  256
370
   -1
100
AcDbLine
 10
-20.26279441628825
 20
-2.000000000000001
 11
-19.10809387790902
 21
-8.881784197001252e-16
  0
ARC
  5
B7
100
AcDbEntity
  8
BrushlessMotorHolder
  6
ByLayer
 62
  256
370
   -1
100
AcDbCircle
 10
-20.84014468547793
 20
1
 40
2
100
AcDbArc
 50
330
 51
90
  0
LINE
  5
B8
100
AcDbEntity
  8
BrushlessMotorHolder
  6
ByLayer
 62
  256
370
   -1
100
AcDbLine
 10
-25.34787684969216
 20
3
 11
-20.84014468547793
 21
3
  0
LINE
  5
B9
100
AcDbEntity
  8
BrushlessMotorHolder
  6
ByLayer
 62
  256
370
   -1
100
AcDbLine
 10
-27.07992765726105
 20
8.881784197001252e-16
 11
-25.92522711888181
 21
-2.000000000000002
  0
ARC
  5
BA
100
AcDbEntity
  8
BrushlessMotorHolder
  6
ByLayer
 62
  256
370
   -1
100
AcDbCircle
 10
-25.34787684969216
 20
1
 40
2
100
AcDbArc
 50
90
 51
210
  0
ARC
  5
BB
100
AcDbEntity
  8
BrushlessMotorHolder
  6
ByLayer
 62
  256
370
   -1
100
AcDbCircle
 10
-13.91194145520238
 20
-1
 40
2
100
AcDbArc
 50
150
 51
270
  0
LINE
  5
BC
100
AcDbEntity
  8
BrushlessMotorHolder
  6
ByLayer
 62
  256
370
   -1
100
AcDbLine
 10
-15.64399226277127
 20
8.881784197001252e-16
 11
-14.489291724392
 21
2
  0
ARC
  5
BD
100
AcDbEntity
  8
BrushlessMotorHolder
  6
ByLayer
 62
  256
370
   -1
100
AcDbCircle
 10
-12.75724091682312
 20
1
 40
2
100
AcDbArc
 50
90
 51
150
  0
LINE
  5
BE
100
AcDbEntity
  8
BrushlessMotorHolder
  6
ByLayer
 62
  256
370
   -1
100
AcDbLine
 10
-12.75724091682312
 20
3
 11
-10.33676985076189
 21
3
  0
ARC
  5
BF
100
AcDbEntity
  8
BrushlessMotorHolder
  6
ByLayer
 62
  256
370
   -1
100
AcDbCircle
 10
-10.33676985076189
 20
1
 40
2
100
AcDbArc
 50
29.99999999999996
 51
90
  0
LINE
  5
C0
100
AcDbEntity
  8
BrushlessMotorHolder
  6
ByLayer
 62
  256
370
   -1
100
AcDbLine
 10
-8.604719043193036
 20
2
 11
-7.450018504813741
 21
-4.440892098500626e-16
  0
LINE
  5
C1
100
AcDbEntity
  8
BrushlessMotorHolder
  6
ByLayer
 62
  256
370
   -1
100
AcDbLine
 10
-13.91194145520238
 20
-3
 11
-9.182069312382628
 21
-3
  0
ARC
  5
C2
100
AcDbEntity
  8
BrushlessMotorHolder
  6
ByLayer
 62
  256
370
   -1
100
AcDbCircle
 10
-9.182069312382628
 20
-1
 40
2
100
AcDbArc
 50
270
 51
29.99999999999996
  0
ARC
  5
C3
100
AcDbEntity
  8
BrushlessMotorHolder
  6
ByLayer
 62
  256
370
   -1
100
AcDbCircle
 10
-1.099165543727897
 20
-1
 40
2
100
AcDbArc
 50
210
 51
270
  0
LINE
  5
C4
100
AcDbEntity
  8
BrushlessMotorHolder
  6
ByLayer
 62
  256
370
   -1
100
AcDbLine
 10
-3.985916889676052
 20
0
 11
-2.831216351296727
 21
-2
  0
ARC
  5
C5
100
AcDbEntity
  8
BrushlessMotorHolder
  6
ByLayer
 62
  256
370
   -1
100
AcDbCircle
 10
-2.253866082107165
 20
1
 40
2
100
AcDbArc
 50
90
 51
210
  0
LINE
  5
C6
100
AcDbEntity
  8
BrushlessMotorHolder
  6
ByLayer
 62
  256
370
   -1
100
AcDbLine
 10
-1.099165543727897
 20
-3
 11
1.099165543727894
 21
-3
  0
ARC
  5
C7
100
AcDbEntity
  8
BrushlessMotorHolder
  6
ByLayer
 62
  256
370
   -1
100
AcDbCircle
 10
1.099165543727894
 20
-1
 40
2
100
AcDbArc
 50
270
 51
330
  0
LINE
  5
C8
100
AcDbEntity
  8
BrushlessMotorHolder
  6
ByLayer
 62
  256
370
   -1
100
AcDbLine
 10
2.831216351296781
 20
-2
 11
3.985916889676048
 21
-4.440892098500626e-16
  0
LINE
  5
C9
100
AcDbEntity
  8
BrushlessMotorHolder
  6
ByLayer
 62
  256
370
   -1
100
AcDbLine
 10
-2.253866082107164
 20
3
 11
2.25386608210716
 21
3
  0
ARC
  5
CA
100
AcDbEntity
  8
BrushlessMotorHolder
  6
ByLayer
 62
  256
370
   -1
100
AcDbCircle
 10
2.253866082107161
 20
1
 40
2
100
AcDbArc
 50
330
 51
89.99999999999994
  0
ARC
  5
CB
100
AcDbEntity
  8
BrushlessMotorHolder
  6
ByLayer
 62
  256
370
   -1
100
AcDbCircle
 10
10.33676985076192
 20
1
 40
2
100
AcDbArc
 50
90
 51
150
  0
LINE
  5
CC
100
AcDbEntity
  8
BrushlessMotorHolder
  6
ByLayer
 62
  256
370
   -1
100
AcDbLine
 10
7.450018504813737
 20
4.440892098500626e-16
 11
8.604719043193032
 21
2
  0
ARC
  5
CD
100
AcDbEntity
  8
BrushlessMotorHolder
  6
ByLayer
 62
  256
370
   -1
100
AcDbCircle
 10
9.182069312382652
 20
-1
 40
2
100
AcDbArc
 50
150
 51
270
  0
LINE
  5
CE
100
AcDbEntity
  8
BrushlessMotorHolder
  6
ByLayer
 62
  256
370
   -1
100
AcDbLine
 10
10.33676985076192
 20
3
 11
12.75724091682314
 21
3
  0
ARC
  5
CF
100
AcDbEntity
  8
BrushlessMotorHolder
  6
ByLayer
 62
  256
370
   -1
100
AcDbCircle
 10
12.75724091682314
 20
1
 40
2
100
AcDbArc
 50
29.99999999999996
 51
90
  0
LINE
  5
D0
100
AcDbEntity
  8
BrushlessMotorHolder
  6
ByLayer
 62
  256
370
   -1
100
AcDbLine
 10
14.489291724392
 20
2
 11
15.64399226277127
 21
2.220446049250313e-16
  0
LINE
  5
D1
100
AcDbEntity
  8
BrushlessMotorHolder
  6
ByLayer
 62
  256
370
   -1
100
AcDbLine
 10
9.182069312382652
 20
-3
 11
13.91194145520238
 21
-3
  0
ARC
  5
D2
100
AcDbEntity
  8
BrushlessMotorHolder
  6
ByLayer
 62
  256
370
   -1
100
AcDbCircle
 10
13.91194145520238
 20
-1
 40
2
100
AcDbArc
 50
270.0000000000001
 51
29.99999999999996
  0
ARC
  5
D3
100
AcDbEntity
  8
BrushlessMotorHolder
  6
ByLayer
 62
  256
370
   -1
100
AcDbCircle
 10
20.84014468547792
 20
1
 40
2
100
AcDbArc
 50
90
 51
210
  0
LINE
  5
D4
100
AcDbEntity
  8
BrushlessMotorHolder
  6
ByLayer
 62
  256
370
   -1
100
AcDbLine
 10
19.10809387790901
 20
-1.332267629550188e-15
 11
20.26279441628825
 21
-1.999999999999999
  0
ARC
  5
D5
100
AcDbEntity
  8
BrushlessMotorHolder
  6
ByLayer
 62
  256
370
   -1
100
AcDbCircle
 10
21.99484522385714
 20
-1
 40
2
100
AcDbArc
 50
210
 51
270
  0
LINE
  5
D6
100
AcDbEntity
  8
BrushlessMotorHolder
  6
ByLayer
 62
  256
370
   -1
100
AcDbLine
 10
21.99484522385714
 20
-3
 11
24.19317631131292
 21
-3
  0
ARC
  5
D7
100
AcDbEntity
  8
BrushlessMotorHolder
  6
ByLayer
 62
  256
370
   -1
100
AcDbCircle
 10
24.19317631131292
 20
-1
 40
2
100
AcDbArc
 50
270
 51
330.0000000000001
  0
LINE
  5
D8
100
AcDbEntity
  8
BrushlessMotorHolder
  6
ByLayer
 62
  256
370
   -1
100
AcDbLine
 10
25.92522711888183
 20
-2
 11
27.07992765726107
 21
0
  0
LINE
  5
D9
100
AcDbEntity
  8
BrushlessMotorHolder
  6
ByLayer
 62
  256
370
   -1
100
AcDbLine
 10
20.84014468547792
 20
3
 11
25.34787684969216
 21
3
  0
ARC
  5
DA
100
AcDbEntity
  8
BrushlessMotorHolder
  6
ByLayer
 62
  256
370
   -1
100
AcDbCircle
 10
25.34787684969216
 20
1
 40
2
100
AcDbArc
 50
330.0000000000001
 51
90
  0
CIRCLE
  5
DB
100
AcDbEntity
  8
construction
  6
ByLayer
 62
  256
370
   -1
100
AcDbCircle
 10
-75.00000000000006
 20
7.105427357601002e-14
 40
11.25000000000006
  0
CIRCLE
  5
DC
100
AcDbEntity
  8
construction
  6
ByLayer
 62
  256
370
   -1
100
AcDbCircle
 10
75.00000000000006
 20
-7.105427357601002e-14
 40
11.25000000000006
  0
CIRCLE
  5
DD
100
AcDbEntity
  8
BrushlessMotorHolder
  6
ByLayer
 62
  256
370
   -1
100
AcDbCircle
 10
-75
 20
0
 40
4.5
  0
CIRCLE
  5
DE
100
AcDbEntity
  8
BrushlessMotorHolder
  6
ByLayer
 62
  256
370
   -1
100
AcDbCircle
 10
75
 20
0
 40
4.5
  0
CIRCLE
  5
DF
100
AcDbEntity
  8
BrushlessMotorHolder
  6
ByLayer
 62
  256
370
   -1
100
AcDbCircle
 10
-84.49999999999997
 20
0
 40
3
  0
CIRCLE
  5
E0
100
AcDbEntity
  8
BrushlessMotorHolder
  6
ByLayer
 62
  256
370
   -1
100
AcDbCircle
 10
-75
 20
-9.500000000000057
 40
3
  0
CIRCLE
  5
E1
100
AcDbEntity
  8
BrushlessMotorHolder
  6
ByLayer
 62
  256
370
   -1
100
AcDbCircle
 10
-75
 20
9.500000000000064
 40
3
  0
CIRCLE
  5
E2
100
AcDbEntity
  8
BrushlessMotorHolder
  6
ByLayer
 62
  256
370
   -1
100
AcDbCircle
 10
75
 20
-9.500000000000064
 40
3
  0
CIRCLE
  5
E3
100
AcDbEntity
  8
BrushlessMotorHolder
  6
ByLayer
 62
  256
370
   -1
100
AcDbCircle
 10
84.49999999999991
 20
0
 40
3
  0
CIRCLE
  5
E4
100
AcDbEntity
  8
BrushlessMotorHolder
  6
ByLayer
 62
  256
370
   -1
100
AcDbCircle
 10
75
 20
9.500000000000057
 40
3
  0
ARC
  5
E5
100
AcDbEntity
  8
BrushlessMotorHolder
  6
ByLayer
 62
  256
370
   -1
100
AcDbCircle
 10
-52.70510148038346
 20
-25.99999999999999
 40
20
100
AcDbArc
 50
90
 51
130.6129598821597
  0
ARC
  5
E6
100
AcDbEntity
  8
BrushlessMotorHolder
  6
ByLayer
 62
  256
370
   -1
100
AcDbCircle
 10
-75.00000000000006
 20
7.105427357601002e-14
 40
14.25000000000006
100
AcDbArc
 50
49.38704011784004
 51
310.6129598821595
  0
ARC
  5
E7
100
AcDbEntity
  8
BrushlessMotorHolder
  6
ByLayer
 62
  256
370
   -1
100
AcDbCircle
 10
-52.70510148038329
 20
25.99999999999999
 40
20
100
AcDbArc
 50
229.3870401178399
 51
270
  0
LINE
  5
E8
100
AcDbEntity
  8
BrushlessMotorHolder
  6
ByLayer
 62
  256
370
   -1
100
AcDbLine
 10
-52.70510148038346
 20
-5.999999999999996
 11
52.70510148038339
 21
-5.999999999999996
  0
ARC
  5
E9
100
AcDbEntity
  8
BrushlessMotorHolder
  6
ByLayer
 62
  256
370
   -1
100
AcDbCircle
 10
52.70510148038339
 20
-25.99999999999999
 40
20
100
AcDbArc
 50
49.38704011784035
 51
90
  0
LINE
  5
EA
100
AcDbEntity
  8
BrushlessMotorHolder
  6
ByLayer
 62
  256
370
   -1
100
AcDbLine
 10
-52.70510148038329
 20
6
 11
52.70510148038329
 21
5.999999999999996
  0
ARC
  5
EB
100
AcDbEntity
  8
BrushlessMotorHolder
  6
ByLayer
 62
  256
370
   -1
100
AcDbCircle
 10
75.00000000000006
 20
7.105427357601002e-14
 40
14.25000000000006
100
AcDbArc
 50
229.3870401178403
 51
130.61295988216
  0
ARC
  5
EC
100
AcDbEntity
  8
BrushlessMotorHolder
  6
ByLayer
 62
  256
370
   -1
100
AcDbCircle
 10
52.70510148038328
 20
25.99999999999999
 40
20
100
AcDbArc
 50
270
 51
310.61295988216
  0
LINE
  5
ED
100
AcDbEntity
  8
construction
  6
ByLayer
 62
  256
370
   -1
100
AcDbLine
 10
-89.25000000000018
 20
-50
 11
-89.25000000000018
 21
50
  0
LINE
  5
EE
100
AcDbEntity
  8
construction
  6
ByLayer
 62
  256
370
   -1
100
AcDbLine
 10
89.25000000000018
 20
-50
 11
89.25000000000018
 21
50
  0
LINE
  5
EF
100
AcDbEntity
  8
construction
  6
ByLayer
 62
  256
370
   -1
100
AcDbLine
 10
83.64999999999998
 20
-50
 11
83.64999999999998
 21
50
  0
LINE
  5
F0
100
AcDbEntity
  8
construction
  6
ByLayer
 62
  256
370
   -1
100
AcDbLine
 10
-83.64999999999998
 20
-50
 11
-83.64999999999998
 21
50
  0
LINE
  5
F1
100
AcDbEntity
  8
construction
  6
ByLayer
 62
  256
370
   -1
100
AcDbLine
 10
-60
 20
105
 11
-60
 21
-50.00000000000001
  0
LINE
  5
F2
100
AcDbEntity
  8
construction
  6
ByLayer
 62
  256
370
   -1
100
AcDbLine
 10
60
 20
105
 11
60
 21
-49.99999999999997
  0
ARC
  5
F3
100
AcDbEntity
  8
HolderProfile
  6
ByLayer
 62
  256
370
   -1
100
AcDbCircle
 10
-60
 20
20
 40
15
100
AcDbArc
 50
270
 51
0
  0
ARC
  5
F4
100
AcDbEntity
  8
HolderProfile
  6
ByLayer
 62
  256
370
   -1
100
AcDbCircle
 10
60
 20
20
 40
15
100
AcDbArc
 50
180
 51
270
  0
LINE
  5
F5
100
AcDbEntity
  8
HolderProfile
  6
ByLayer
 62
  256
370
   -1
100
AcDbLine
 10
-45
 20
70
 11
-45
 21
20
  0
ARC
  5
F6
100
AcDbEntity
  8
HolderProfile
  6
ByLayer
 62
  256
370
   -1
100
AcDbCircle
 10
-80
 20
70
 40
35
100
AcDbArc
 50
0
 51
90
  0
LINE
  5
F7
100
AcDbEntity
  8
HolderProfile
  6
ByLayer
 62
  256
370
   -1
100
AcDbLine
 10
45
 20
70
 11
45
 21
20
  0
ARC
  5
F8
100
AcDbEntity
  8
HolderProfile
  6
ByLayer
 62
  256
370
   -1
100
AcDbCircle
 10
80
 20
70
 40
35
100
AcDbArc
 50
90
 51
180
  0
LINE
  5
F9
100
AcDbEntity
  8
construction
  6
ByLayer
 62
  256
370
   -1
100
AcDbLine
 10
-40
 20
120
 11
-40
 21
-49.99999999999999
  0
LINE
  5
FA
100
AcDbEntity
  8
construction
  6
ByLayer
 62
  256
370
   -1
100
AcDbLine
 10
40
 20
120
 11
40
 21
-50.00000000000001
  0
LINE
  5
FB
100
AcDbEntity
  8
BearingHolder
  6
ByLayer
 62
  256
370
   -1
100
AcDbLine
 10
-48.44188761727721
 20
3
 11
-47
 21
3
  0
ARC
  5
FC
100
AcDbEntity
  8
BearingHolder
  6
ByLayer
 62
  256
370
   -1
100
AcDbCircle
 10
-47
 20
1
 40
2
100
AcDbArc
 50
0
 51
90
  0
LINE
  5
FD
100
AcDbEntity
  8
BearingHolder
  6
ByLayer
 62
  256
370
   -1
100
AcDbLine
 10
-45
 20
1
 11
-45
 21
-0.9999999999999998
  0
LINE
  5
FE
100
AcDbEntity
  8
BearingHolder
  6
ByLayer
 62
  256
370
   -1
100
AcDbLine
 10
-47.28718707889797
 20
-3
 11
-47.00000000000001
 21
-3
  0
ARC
  5
FF
100
AcDbEntity
  8
BearingHolder
  6
ByLayer
 62
  256
370
   -1
100
AcDbCircle
 10
-47.00000000000001
 20
-1
 40
2
100
AcDbArc
 50
270
 51
0
  0
ARC
  5
100
100
AcDbEntity
  8
BearingHolder
  6
ByLayer
 62
  256
370
   -1
100
AcDbCircle
 10
48.44188761727721
 20
1
 40
2
100
AcDbArc
 50
330.0000000000001
 51
90
  0
LINE
  5
101
100
AcDbEntity
  8
BearingHolder
  6
ByLayer
 62
  256
370
   -1
100
AcDbLine
 10
50.17393842484609
 20
-1.77635683940025e-15
 11
49.01923788646683
 21
-1.999999999999976
  0
ARC
  5
102
100
AcDbEntity
  8
BearingHolder
  6
ByLayer
 62
  256
370
   -1
100
AcDbCircle
 10
47.28718707889797
 20
-0.9999999999999998
 40
2
100
AcDbArc
 50
270
 51
330.0000000000001
  0
LINE
  5
103
100
AcDbEntity
  8
BearingHolder
  6
ByLayer
 62
  256
370
   -1
100
AcDbLine
 10
48.44188761727721
 20
3
 11
47
 21
3
  0
ARC
  5
104
100
AcDbEntity
  8
BearingHolder
  6
ByLayer
 62
  256
370
   -1
100
AcDbCircle
 10
47
 20
1
 40
2
100
AcDbArc
 50
90
 51
180
  0
LINE
  5
105
100
AcDbEntity
  8
BearingHolder
  6
ByLayer
 62
  256
370
   -1
100
AcDbLine
 10
45
 20
1
 11
45
 21
-1
  0
LINE
  5
106
100
AcDbEntity
  8
BearingHolder
  6
ByLayer
 62
  256
370
   -1
100
AcDbLine
 10
47.28718707889797
 20
-3
 11
47.00000000000001
 21
-3
  0
ARC
  5
107
100
AcDbEntity
  8
BearingHolder
  6
ByLayer
 62
  256
370
   -1
100
AcDbCircle
 10
47.00000000000001
 20
-1
 40
2
100
AcDbArc
 50
180
 51
270
  0
ARC
  5
108
100
AcDbEntity
  8
BrushlessMotorHolder
  6
ByLayer
 62
  256
370
   -1
100
AcDbCircle
 10
-48.44188761727721
 20
1
 40
2
100
AcDbArc
 50
90
 51
209.9999999999999
  0
LINE
  5
109
100
AcDbEntity
  8
BrushlessMotorHolder
  6
ByLayer
 62
  256
370
   -1
100
AcDbLine
 10
-50.17393842484609
 20
1.77635683940025e-15
 11
-49.01923788646683
 21
-1.999999999999996
  0
ARC
  5
10A
100
AcDbEntity
  8
BrushlessMotorHolder
  6
ByLayer
 62
  256
370
   -1
100
AcDbCircle
 10
-47.28718707889797
 20
-1
 40
2
100
AcDbArc
 50
209.9999999999999
 51
270
  0
LINE
  5
10B
100
AcDbEntity
  8
BrushlessMotorHolder
  6
ByLayer
 62
  256
370
   -1
100
AcDbLine
 10
-48.44188761727721
 20
3
 11
-47
 21
3
  0
ARC
  5
10C
100
AcDbEntity
  8
BrushlessMotorHolder
  6
ByLayer
 62
  256
370
   -1
100
AcDbCircle
 10
-47
 20
1
 40
2
100
AcDbArc
 50
0
 51
90
  0
LINE
  5
10D
100
AcDbEntity
  8
BrushlessMotorHolder
  6
ByLayer
 62
  256
370
   -1
100
AcDbLine
 10
-45
 20
1
 11
-45
 21
-0.9999999999999998
  0
LINE
  5
10E
100
AcDbEntity
  8
BrushlessMotorHolder
  6
ByLayer
 62
  256
370
   -1
100
AcDbLine
 10
-47.28718707889797
 20
-3
 11
-47.00000000000001
 21
-3
  0
ARC
  5
10F
100
AcDbEntity
  8
BrushlessMotorHolder
  6
ByLayer
 62
  256
370
   -1
100
AcDbCircle
 10
-47.00000000000001
 20
-1
 40
2
100
AcDbArc
 50
270
 51
0
  0
ARC
  5
110
100
AcDbEntity
  8
BrushlessMotorHolder
  6
ByLayer
 62
  256
370
   -1
100
AcDbCircle
 10
48.44188761727721
 20
1
 40
2
100
AcDbArc
 50
330.0000000000001
 51
90
  0
LINE
  5
111
100
AcDbEntity
  8
BrushlessMotorHolder
  6
ByLayer
 62
  256
370
   -1
100
AcDbLine
 10
50.17393842484609
 20
-1.77635683940025e-15
 11
49.01923788646683
 21
-1.999999999999976
  0
ARC
  5
112
100
AcDbEntity
  8
BrushlessMotorHolder
  6
ByLayer
 62
  256
370
   -1
100
AcDbCircle
 10
47.28718707889797
 20
-0.9999999999999998
 40
2
100
AcDbArc
 50
270
 51
330.0000000000001
  0
LINE
  5
113
100
AcDbEntity
  8
BrushlessMotorHolder
  6
ByLayer
 62
  256
370
   -1
100
AcDbLine
 10
48.44188761727721
 20
3
 11
47
 21
3
  0
ARC
  5
114
100
AcDbEntity
  8
BrushlessMotorHolder
  6
ByLayer
 62
  256
370
   -1
100
AcDbCircle
 10
47
 20
1
 40
2
100
AcDbArc
 50
90
 51
180
  0
LINE
  5
115
100
AcDbEntity
  8
BrushlessMotorHolder
  6
ByLayer
 62
  256
370
   -1
100
AcDbLine
 10
45
 20
1
 11
45
 21
-1
  0
LINE
  5
116
100
AcDbEntity
  8
BrushlessMotorHolder
  6
ByLayer
 62
  256
370
   -1
100
AcDbLine
 10
47.28718707889797
 20
-3
 11
47.00000000000001
 21
-3
  0
ARC
  5
117
100
AcDbEntity
  8
BrushlessMotorHolder
  6
ByLayer
 62
  256
370
   -1
100
AcDbCircle
 10
47.00000000000001
 20
-1
 40
2
100
AcDbArc
 50
180
 51
270
  0
LINE
  5
118
100
AcDbEntity
  8
construction
  6
ByLayer
 62
  256
370
   -1
100
AcDbLine
 10
-89.25000000000018
 20
20
 11
89.25000000000018
 21
20
  0
LINE
  5
119
100
AcDbEntity
  8
construction
  6
ByLayer
 62
  256
370
   -1
100
AcDbLine
 10
-89.25000000000018
 20
40
 11
89.25000000000018
 21
40
  0
LINE
  5
11A
100
AcDbEntity
  8
construction
  6
ByLayer
 62
  256
370
   -1
100
AcDbLine
 10
-89.25000000000018
 20
60
 11
89.25000000000018
 21
60
  0
LINE
  5
11B
100
AcDbEntity
  8
construction
  6
ByLayer
 62
  256
370
   -1
100
AcDbLine
 10
-89.25000000000018
 20
80
 11
89.25000000000018
 21
80
  0
LINE
  5
11C
100
AcDbEntity
  8
construction
  6
ByLayer
 62
  256
370
   -1
100
AcDbLine
 10
-89.25000000000018
 20
100
 11
89.25000000000018
 21
100
  0
CIRCLE
  5
11D
100
AcDbEntity
  8
HolderProfile
  6
ByLayer
 62
  256
370
   -1
100
AcDbCircle
 10
-40
 20
100
 40
2
  0
CIRCLE
  5
11E
100
AcDbEntity
  8
HolderProfile
  6
ByLayer
 62
  256
370
   -1
100
AcDbCircle
 10
-40
 20
80
 40
2
  0
CIRCLE
  5
11F
100
AcDbEntity
  8
HolderProfile
  6
ByLayer
 62
  256
370
   -1
100
AcDbCircle
 10
-40
 20
60
 40
2
  0
CIRCLE
  5
120
100
AcDbEntity
  8
HolderProfile
  6
ByLayer
 62
  256
370
   -1
100
AcDbCircle
 10
-40
 20
40
 40
2
  0
CIRCLE
  5
121
100
AcDbEntity
  8
HolderProfile
  6
ByLayer
 62
  256
370
   -1
100
AcDbCircle
 10
-40
 20
20
 40
2
  0
CIRCLE
  5
122
100
AcDbEntity
  8
HolderProfile
  6
ByLayer
 62
  256
370
   -1
100
AcDbCircle
 10
40
 20
20
 40
2
  0
CIRCLE
  5
123
100
AcDbEntity
  8
HolderProfile
  6
ByLayer
 62
  256
370
   -1
100
AcDbCircle
 10
40
 20
40
 40
2
  0
CIRCLE
  5
124
100
AcDbEntity
  8
HolderProfile
  6
ByLayer
 62
  256
370
   -1
100
AcDbCircle
 10
40
 20
60
 40
2
  0
CIRCLE
  5
125
100
AcDbEntity
  8
HolderProfile
  6
ByLayer
 62
  256
370
   -1
100
AcDbCircle
 10
40
 20
80
 40
2
  0
CIRCLE
  5
126
100
AcDbEntity
  8
HolderProfile
  6
ByLayer
 62
  256
370
   -1
100
AcDbCircle
 10
40
 20
100
 40
2
  0
LINE
  5
127
100
AcDbEntity
  8
construction
  6
ByLayer
 62
  256
370
   -1
100
AcDbLine
 10
7.347880794884118e-15
 20
120
 11
-3.061616997868383e-15
 21
-50
  0
ARC
  5
128
100
AcDbEntity
  8
BrushlessMotorHolder
  6
ByLayer
 62
  256
370
   -1
100
AcDbCircle
 10
-64.39705229664884
 20
-1.000000000000004
 40
2
100
AcDbArc
 50
174.6121776932931
 51
270
  0
ARC
  5
129
100
AcDbEntity
  8
BrushlessMotorHolder
  6
ByLayer
 62
  256
370
   -1
100
AcDbCircle
 10
-75
 20
0
 40
8.65
100
AcDbArc
 50
354.6121776932931
 51
5.387822306706851
  0
ARC
  5
12A
100
AcDbEntity
  8
BrushlessMotorHolder
  6
ByLayer
 62
  256
370
   -1
100
AcDbCircle
 10
-64.39705229664887
 20
1
 40
2
100
AcDbArc
 50
90
 51
185.3878223067069
  0
ARC
  5
12B
100
AcDbEntity
  8
BrushlessMotorHolder
  6
ByLayer
 62
  256
370
   -1
100
AcDbCircle
 10
64.39705229664881
 20
-1.000000000000004
 40
2
100
AcDbArc
 50
270
 51
5.387822306706851
  0
ARC
  5
12C
100
AcDbEntity
  8
BrushlessMotorHolder
  6
ByLayer
 62
  256
370
   -1
100
AcDbCircle
 10
75
 20
0
 40
8.65
100
AcDbArc
 50
174.6121776932931
 51
185.3878223067069
  0
ARC
  5
12D
100
AcDbEntity
  8
BrushlessMotorHolder
  6
ByLayer
 62
  256
370
   -1
100
AcDbCircle
 10
64.39705229664894
 20
1
 40
2
100
AcDbArc
 50
354.6121776932929
 51
89.99999999999959
  0
ARC
  5
12E
100
AcDbEntity
  8
BrushlessMotorHolder
  6
ByLayer
 62
  256
370
   -1
100
AcDbCircle
 10
-56.52479138593196
 20
1
 40
2
100
AcDbArc
 50
29.99999999999996
 51
90
  0
LINE
  5
12F
100
AcDbEntity
  8
BrushlessMotorHolder
  6
ByLayer
 62
  256
370
   -1
100
AcDbLine
 10
-54.79274057836308
 20
1.999999999999997
 11
-53.63804003998386
 21
-4.884981308350689e-15
  0
LINE
  5
130
100
AcDbEntity
  8
BrushlessMotorHolder
  6
ByLayer
 62
  256
370
   -1
100
AcDbLine
 10
-64.39705229664884
 20
-3
 11
-55.37009084755272
 21
-3
  0
ARC
  5
131
100
AcDbEntity
  8
BrushlessMotorHolder
  6
ByLayer
 62
  256
370
   -1
100
AcDbCircle
 10
-55.37009084755272
 20
-1
 40
2
100
AcDbArc
 50
270
 51
29.99999999999996
  0
LINE
  5
132
100
AcDbEntity
  8
BrushlessMotorHolder
  6
ByLayer
 62
  256
370
   -1
100
AcDbLine
 10
55.37009084755272
 20
-3
 11
64.39705229664881
 21
-3
  0
ARC
  5
133
100
AcDbEntity
  8
BrushlessMotorHolder
  6
ByLayer
 62
  256
370
   -1
100
AcDbCircle
 10
55.37009084755272
 20
-1
 40
2
100
AcDbArc
 50
150
 51
270
  0
LINE
  5
134
100
AcDbEntity
  8
BrushlessMotorHolder
  6
ByLayer
 62
  256
370
   -1
100
AcDbLine
 10
53.6380400399838
 20
-2.220446049250313e-15
 11
54.7927405783631
 21
1.999999999999995
  0
ARC
  5
135
100
AcDbEntity
  8
BrushlessMotorHolder
  6
ByLayer
 62
  256
370
   -1
100
AcDbCircle
 10
56.52479138593196
 20
1
 40
2
100
AcDbArc
 50
90
 51
150.0000000000001
  0
LINE
  5
136
100
AcDbEntity
  8
construction
  6
ByLayer
 62
  256
370
   -1
100
AcDbLine
 10
-5.717967697244898
 20
-50
 11
-5.717967697244889
 21
100
  0
LINE
  5
137
100
AcDbEntity
  8
construction
  6
ByLayer
 62
  256
370
   -1
100
AcDbLine
 10
5.717967697244889
 20
-50
 11
5.717967697244898
 21
100
  0
LINE
  5
138
100
AcDbEntity
  8
BearingHolder
  6
ByLayer
 62
  256
370
   -1
100
AcDbLine
 10
-64.39705229664887
 20
3
 11
-56.52479138593196
 21
3
  0
LINE
  5
139
100
AcDbEntity
  8
BearingHolder
  6
ByLayer
 62
  256
370
   -1
100
AcDbLine
 10
56.52479138593196
 20
3
 11
64.39705229664895
 21
3
  0
LINE
  5
13A
100
AcDbEntity
  8
BrushlessMotorHolder
  6
ByLayer
 62
  256
370
   -1
100
AcDbLine
 10
-64.39705229664887
 20
3
 11
-56.52479138593196
 21
3
  0
LINE
  5
13B
100
AcDbEntity
  8
BrushlessMotorHolder
  6
ByLayer
 62
  256
370
   -1
100
AcDbLine
 10
56.52479138593196
 20
3
 11
64.39705229664895
 21
3
  0
ARC
  5
13C
100
AcDbEntity
  8
BearingHolder
  6
ByLayer
 62
  256
370
   -1
100
AcDbCircle
 10
-31.55811238272279
 20
-1
 40
2
100
AcDbArc
 50
270
 51
29.99999999999986
  0
LINE
  5
13D
100
AcDbEntity
  8
BearingHolder
  6
ByLayer
 62
  256
370
   -1
100
AcDbLine
 10
-29.82606157515391
 20
-3.552713678800501e-15
 11
-30.98076211353317
 21
1.999999999999997
  0
ARC
  5
13E
100
AcDbEntity
  8
BearingHolder
  6
ByLayer
 62
  256
370
   -1
100
AcDbCircle
 10
-32.71281292110203
 20
1
 40
2
100
AcDbArc
 50
29.99999999999986
 51
90
  0
LINE
  5
13F
100
AcDbEntity
  8
BearingHolder
  6
ByLayer
 62
  256
370
   -1
100
AcDbLine
 10
-31.55811238272279
 20
-3
 11
-33
 21
-3
  0
ARC
  5
140
100
AcDbEntity
  8
BearingHolder
  6
ByLayer
 62
  256
370
   -1
100
AcDbCircle
 10
-33
 20
-1
 40
2
100
AcDbArc
 50
180
 51
270
  0
LINE
  5
141
100
AcDbEntity
  8
BearingHolder
  6
ByLayer
 62
  256
370
   -1
100
AcDbLine
 10
-35
 20
-1
 11
-35
 21
1
  0
LINE
  5
142
100
AcDbEntity
  8
BearingHolder
  6
ByLayer
 62
  256
370
   -1
100
AcDbLine
 10
-32.71281292110203
 20
3
 11
-32.99999999999999
 21
3
  0
ARC
  5
143
100
AcDbEntity
  8
BearingHolder
  6
ByLayer
 62
  256
370
   -1
100
AcDbCircle
 10
-32.99999999999999
 20
1
 40
2
100
AcDbArc
 50
90
 51
180
  0
ARC
  5
144
100
AcDbEntity
  8
BrushlessMotorHolder
  6
ByLayer
 62
  256
370
   -1
100
AcDbCircle
 10
-31.55811238272279
 20
-1
 40
2
100
AcDbArc
 50
270
 51
29.99999999999986
  0
LINE
  5
145
100
AcDbEntity
  8
BrushlessMotorHolder
  6
ByLayer
 62
  256
370
   -1
100
AcDbLine
 10
-29.82606157515391
 20
-3.552713678800501e-15
 11
-30.98076211353317
 21
1.999999999999997
  0
ARC
  5
146
100
AcDbEntity
  8
BrushlessMotorHolder
  6
ByLayer
 62
  256
370
   -1
100
AcDbCircle
 10
-32.71281292110203
 20
1
 40
2
100
AcDbArc
 50
29.99999999999986
 51
90
  0
LINE
  5
147
100
AcDbEntity
  8
BrushlessMotorHolder
  6
ByLayer
 62
  256
370
   -1
100
AcDbLine
 10
-31.55811238272279
 20
-3
 11
-33
 21
-3
  0
ARC
  5
148
100
AcDbEntity
  8
BrushlessMotorHolder
  6
ByLayer
 62
  256
370
   -1
100
AcDbCircle
 10
-33
 20
-1
 40
2
100
AcDbArc
 50
180
 51
270
  0
LINE
  5
149
100
AcDbEntity
  8
BrushlessMotorHolder
  6
ByLayer
 62
  256
370
   -1
100
AcDbLine
 10
-35
 20
-1
 11
-35
 21
1
  0
LINE
  5
14A
100
AcDbEntity
  8
BrushlessMotorHolder
  6
ByLayer
 62
  256
370
   -1
100
AcDbLine
 10
-32.71281292110203
 20
3
 11
-32.99999999999999
 21
3
  0
ARC
  5
14B
100
AcDbEntity
  8
BrushlessMotorHolder
  6
ByLayer
 62
  256
370
   -1
100
AcDbCircle
 10
-32.99999999999999
 20
1
 40
2
100
AcDbArc
 50
90
 51
180
  0
ARC
  5
14C
100
AcDbEntity
  8
BearingHolder
  6
ByLayer
 62
  256
370
   -1
100
AcDbCircle
 10
31.55811238272275
 20
-1
 40
2
100
AcDbArc
 50
150.0000000000001
 51
270
  0
LINE
  5
14D
100
AcDbEntity
  8
BearingHolder
  6
ByLayer
 62
  256
370
   -1
100
AcDbLine
 10
29.82606157515389
 20
1.776356839400251e-15
 11
30.98076211353312
 21
1.999999999999976
  0
ARC
  5
14E
100
AcDbEntity
  8
BearingHolder
  6
ByLayer
 62
  256
370
   -1
100
AcDbCircle
 10
32.71281292110203
 20
1.000000000000002
 40
2
100
AcDbArc
 50
90
 51
150.0000000000001
  0
LINE
  5
14F
100
AcDbEntity
  8
BearingHolder
  6
ByLayer
 62
  256
370
   -1
100
AcDbLine
 10
31.55811238272275
 20
-3
 11
33
 21
-3
  0
ARC
  5
150
100
AcDbEntity
  8
BearingHolder
  6
ByLayer
 62
  256
370
   -1
100
AcDbCircle
 10
33
 20
-1
 40
2
100
AcDbArc
 50
270
 51
360
  0
LINE
  5
151
100
AcDbEntity
  8
BearingHolder
  6
ByLayer
 62
  256
370
   -1
100
AcDbLine
 10
35
 20
-1
 11
35
 21
1.000000000000002
  0
LINE
  5
152
100
AcDbEntity
  8
BearingHolder
  6
ByLayer
 62
  256
370
   -1
100
AcDbLine
 10
32.71281292110203
 20
3.000000000000005
 11
33.00000000000001
 21
3.000000000000005
  0
ARC
  5
153
100
AcDbEntity
  8
BearingHolder
  6
ByLayer
 62
  256
370
   -1
100
AcDbCircle
 10
33.00000000000001
 20
1.000000000000002
 40
2
100
AcDbArc
 50
360
 51
90
  0
ARC
  5
154
100
AcDbEntity
  8
BrushlessMotorHolder
  6
ByLayer
 62
  256
370
   -1
100
AcDbCircle
 10
31.55811238272275
 20
-1
 40
2
100
AcDbArc
 50
150.0000000000001
 51
270
  0
LINE
  5
155
100
AcDbEntity
  8
BrushlessMotorHolder
  6
ByLayer
 62
  256
370
   -1
100
AcDbLine
 10
29.82606157515389
 20
1.776356839400251e-15
 11
30.98076211353312
 21
1.999999999999976
  0
ARC
  5
156
100
AcDbEntity
  8
BrushlessMotorHolder
  6
ByLayer
 62
  256
370
   -1
100
AcDbCircle
 10
32.71281292110203
 20
1.000000000000002
 40
2
100
AcDbArc
 50
90
 51
150.0000000000001
  0
LINE
  5
157
100
AcDbEntity
  8
BrushlessMotorHolder
  6
ByLayer
 62
  256
370
   -1
100
AcDbLine
 10
31.55811238272275
 20
-3
 11
33
 21
-3
  0
ARC
  5
158
100
AcDbEntity
  8
BrushlessMotorHolder
  6
ByLayer
 62
  256
370
   -1
100
AcDbCircle
 10
33
 20
-1
 40
2
100
AcDbArc
 50
270
 51
360
  0
LINE
  5
159
100
AcDbEntity
  8
BrushlessMotorHolder
  6
ByLayer
 62
  256
370
   -1
100
AcDbLine
 10
35
 20
-1
 11
35
 21
1.000000000000002
  0
LINE
  5
15A
100
AcDbEntity
  8
BrushlessMotorHolder
  6
ByLayer
 62
  256
370
   -1
100
AcDbLine
 10
32.71281292110203
 20
3.000000000000005
 11
33.00000000000001
 21
3.000000000000005
  0
ARC
  5
15B
100
AcDbEntity
  8
BrushlessMotorHolder
  6
ByLayer
 62
  256
370
   -1
100
AcDbCircle
 10
33.00000000000001
 20
1.000000000000002
 40
2
100
AcDbArc
 50
360
 51
90
  0
CIRCLE
  5
15C
100
AcDbEntity
  8
HolderProfile
  6
ByLayer
 62
  256
370
   -1
100
AcDbCircle
 10
-25
 20
15
 40
7.071067811865476
  0
CIRCLE
  5
15D
100
AcDbEntity
  8
HolderProfile
  6
ByLayer
 62
  256
370
   -1
100
AcDbCircle
 10
25
 20
15
 40
7.071067811865476
  0
CIRCLE
  5
15E
100
AcDbEntity
  8
HolderProfile
  6
ByLayer
 62
  256
370
   -1
100
AcDbCircle
 10
-25
 20
105
 40
7.071067811865476
  0
CIRCLE
  5
15F
100
AcDbEntity
  8
HolderProfile
  6
ByLayer
 62
  256
370
   -1
100
AcDbCircle
 10
25
 20
105
 40
7.071067811865476
  0
ARC
  5
160
100
AcDbEntity
  8
HolderProfile
  6
ByLayer
 62
  256
370
   -1
100
AcDbCircle
 10
-14.99999999999999
 20
73.22875655532295
 40
20
100
AcDbArc
 50
138.5903778907291
 51
180
  0
LINE
  5
161
100
AcDbEntity
  8
HolderProfile
  6
ByLayer
 62
  256
370
   -1
100
AcDbLine
 10
-34.99999999999999
 20
46.77124344467704
 11
-34.99999999999999
 21
73.22875655532295
  0
ARC
  5
162
100
AcDbEntity
  8
HolderProfile
  6
ByLayer
 62
  256
370
   -1
100
AcDbCircle
 10
-14.99999999999999
 20
46.77124344467704
 40
20
100
AcDbArc
 50
180
 51
221.4096221092708
  0
ARC
  5
163
100
AcDbEntity
  8
HolderProfile
  6
ByLayer
 62
  256
370
   -1
100
AcDbCircle
 10
3.67394039744206e-15
 20
60
 40
40
100
AcDbArc
 50
221.4096221092709
 51
318.5903778907291
  0
ARC
  5
164
100
AcDbEntity
  8
HolderProfile
  6
ByLayer
 62
  256
370
   -1
100
AcDbCircle
 10
14.99999999999999
 20
46.77124344467704
 40
20
100
AcDbArc
 50
318.5903778907291
 51
0
  0
LINE
  5
165
100
AcDbEntity
  8
HolderProfile
  6
ByLayer
 62
  256
370
   -1
100
AcDbLine
 10
35
 20
46.77124344467704
 11
35.00000000000001
 21
73.22875655532289
  0
ARC
  5
166
100
AcDbEntity
  8
HolderProfile
  6
ByLayer
 62
  256
370
   -1
100
AcDbCircle
 10
3.67394039744206e-15
 20
60
 40
40
100
AcDbArc
 50
41.40962210927073
 51
138.5903778907291
  0
ARC
  5
167
100
AcDbEntity
  8
HolderProfile
  6
ByLayer
 62
  256
370
   -1
100
AcDbCircle
 10
15
 20
73.22875655532289
 40
20
100
AcDbArc
 50
0
 51
41.40962210927073
  0
LINE
  5
168
100
AcDbEntity
  8
HolderProfile
  6
ByLayer
 62
  256
370
   -1
100
AcDbLine
 10
-83.64999999999996
 20
120
 11
-83.64999999999998
 21
105
  0
LINE
  5
169
100
AcDbEntity
  8
HolderProfile
  6
ByLayer
 62
  256
370
   -1
100
AcDbLine
 10
-83.64999999999998
 20
105
 11
-80
 21
105
  0
LINE
  5
16A
100
AcDbEntity
  8
HolderProfile
  6
ByLayer
 62
  256
370
   -1
100
AcDbLine
 10
80
 20
105
 11
83.64999999999996
 21
105
  0
LINE
  5
16B
100
AcDbEntity
  8
HolderProfile
  6
ByLayer
 62
  256
370
   -1
100
AcDbLine
 10
-83.64999999999996
 20
120
 11
83.64999999999998
 21
120
  0
LINE
  5
16C
100
AcDbEntity
  8
HolderProfile
  6
ByLayer
 62
  256
370
   -1
100
AcDbLine
 10
83.64999999999998
 20
120
 11
83.64999999999996
 21
105
  0
LINE
  5
16D
100
AcDbEntity
  8
HolderProfile
  6
ByLayer
 62
  256
370
   -1
100
AcDbLine
 10
60
 20
5
 11
89.25000000000018
 21
4.999999999999999
  0
LINE
  5
16E
100
AcDbEntity
  8
HolderProfile
  6
ByLayer
 62
  256
370
   -1
100
AcDbLine
 10
89.25000000000018
 20
4.999999999999999
 11
89.25000000000018
 21
0
  0
LINE
  5
16F
100
AcDbEntity
  8
HolderProfile
  6
ByLayer
 62
  256
370
   -1
100
AcDbLine
 10
-89.25000000000018
 20
4.999999999999998
 11
-60
 21
5
  0
LINE
  5
170
100
AcDbEntity
  8
HolderProfile
  6
ByLayer
 62
  256
370
   -1
100
AcDbLine
 10
-89.25000000000018
 20
4.999999999999998
 11
-89.25000000000018
 21
0
  0
LINE
  5
171
100
AcDbEntity
  8
HolderProfile
  6
ByLayer
 62
  256
370
   -1
100
AcDbLine
 10
-89.25000000000018
 20
0
 11
89.25000000000018
 21
0
  0
ENDSEC
  0
SECTION
  2
OBJECTS
  0
DICTIONARY
  5
C
330
0
100
AcDbDictionary
281
    1
  3
ACAD_GROUP
350
D
  0
DICTIONARY
  5
D
330
C
100
AcDbDictionary
281
    1
  0
ENDSEC
  0
EOF
